^C:\USERS\GIDEO\SOURCE\REPOS\DER ANFANG\DER ANFANG\SNAKE.CPP|C:\USERS\GIDEO\SOURCE\REPOS\DER ANFANG\SNAKE\DEQUE EXAMPLE.CPP|C:\USERS\GIDEO\SOURCE\REPOS\DER ANFANG\SNAKE\SNAKEFUNKTIONS.CPP
C:\USERS\GIDEO\SOURCE\REPOS\DER ANFANG\SNAKE\DEBUG\VC142.PDB
C:\USERS\GIDEO\SOURCE\REPOS\DER ANFANG\SNAKE\DEBUG\VC142.IDB
C:\USERS\GIDEO\SOURCE\REPOS\DER ANFANG\SNAKE\DEBUG\SNAKEFUNKTIONS.OBJ
C:\USERS\GIDEO\SOURCE\REPOS\DER ANFANG\SNAKE\DEBUG\DEQUE EXAMPLE.OBJ
^C:\USERS\GIDEO\SOURCE\REPOS\DER ANFANG\SNAKE\DEQUE EXAMPLE.CPP
C:\USERS\GIDEO\SOURCE\REPOS\DER ANFANG\SNAKE\DEBUG\DEQUE EXAMPLE.OBJ
^C:\USERS\GIDEO\SOURCE\REPOS\DER ANFANG\DER ANFANG\SNAKE.CPP|C:\USERS\GIDEO\SOURCE\REPOS\DER ANFANG\SNAKE\SNAKEFUNKTIONS.CPP
C:\USERS\GIDEO\SOURCE\REPOS\DER ANFANG\SNAKE\DEBUG\VC142.PDB
C:\USERS\GIDEO\SOURCE\REPOS\DER ANFANG\SNAKE\DEBUG\VC142.IDB
C:\USERS\GIDEO\SOURCE\REPOS\DER ANFANG\SNAKE\DEBUG\SNAKEFUNKTIONS.OBJ
^C:\USERS\GIDEO\SOURCE\REPOS\DER ANFANG\SNAKE\SNAKEFUNKTIONS.CPP
C:\USERS\GIDEO\SOURCE\REPOS\DER ANFANG\SNAKE\DEBUG\SNAKEFUNKTIONS.OBJ
